Day 8 - Final Exercises
…
counties_raw <- read_csv(here("data", "nys_acs.csv"))

## Parsed with column specification:
## cols(
##   county_name = col_character(),
##   year = col_double(),
##   county_per_poverty = col_double(),
##   median_household_income = col_double(),
##   county_per_bach = col_double()
## )

# preview data
schools

## # A tibble: 35,663 x 12
##    school_cd school_name district_name county_name region  year total_enroll
##    <chr>     <chr>       <chr>         <chr>       <chr>  <dbl>        <dbl>
##  1 01010001 MONTESSORI ALBANY CITY  ALBANY      CAPIT  2008          316
##  2 01010001 MONTESSORI ALBANY CITY  ALBANY      CAPIT  2009          312
##  3 01010001 MONTESSORI ALBANY CITY  ALBANY      CAPIT  2010          300
##  4 01010001 MONTESSORI ALBANY CITY  ALBANY      CAPIT  2011          326
##  5 01010001 MONTESSORI ALBANY CITY  ALBANY      CAPIT  2012          294
##  6 01010001 MONTESSORI ALBANY CITY  ALBANY      CAPIT  2013          321
##  7 01010001 MONTESSORI ALBANY CITY  ALBANY      CAPIT  2014          335
##  8 01010001 MONTESSORI ALBANY CITY  ALBANY      CAPIT  2015          347
##  9 01010001 MONTESSORI ALBANY CITY  ALBANY      CAPIT  2016          366
## 10 01010001 MONTESSORI ALBANY CITY  ALBANY      CAPIT  2017          359
## #  with 35,653 more rows, and 5 more variables: per_free_lunch <dbl>,
## #   per_reduced_lunch <dbl>, per_lep <dbl>, mean_ela_score <dbl>,
## #   mean_math_score <dbl>

counties

## # A tibble: 496 x 5
##    county_name  year county_per_poverty median_household_income county_per_bach
##    <chr>       <dbl>              <dbl>                   <dbl>           <dbl>
##  1 ALBANY       2009              0.118                   55350          0.190 
##  2 ALBANY       2010              0.119                   56090          0.197 
##  3 ALBANY       2011              0.121                   57715          0.199 
##  4 ALBANY       2012              0.124                   59359          0.198 
##  5 ALBANY       2013              0.123                   59394          0.205 
##  6 ALBANY       2014              0.129                   59940          0.201 
##  7 ALBANY       2015              0.128                   59887          0.201 
##  8 ALBANY       2016              0.123                   60904          0.206 
##  9 ALLEGANY     2009              0.152                   40917          0.0947
## 10 ALLEGANY     2010              0.149                   41305          0.0902
## #  with 486 more rows
…
counties <- counties %>% 
  rename(poverty_proportion = county_per_poverty,
         bachelors_proportion = county_per_bach)

# preview data
schools

## # A tibble: 35,663 x 12
##    school_id school_name district_name county_name region  year total_enrollment
##    <chr>     <chr>       <chr>         <chr>       <chr>  <dbl>            <dbl>
##  1 01010001 MONTESSORI ALBANY CITY  ALBANY      CAPIT  2008              316
##  2 01010001 MONTESSORI ALBANY CITY  ALBANY      CAPIT  2009              312
##  3 01010001 MONTESSORI ALBANY CITY  ALBANY      CAPIT  2010              300
##  4 01010001 MONTESSORI ALBANY CITY  ALBANY      CAPIT  2011              326
##  5 01010001 MONTESSORI ALBANY CITY  ALBANY      CAPIT  2012              294
##  6 01010001 MONTESSORI ALBANY CITY  ALBANY      CAPIT  2013              321
##  7 01010001 MONTESSORI ALBANY CITY  ALBANY      CAPIT  2014              335
##  8 01010001 MONTESSORI ALBANY CITY  ALBANY      CAPIT  2015              347
##  9 01010001 MONTESSORI ALBANY CITY  ALBANY      CAPIT  2016              366
## 10 01010001 MONTESSORI ALBANY CITY  ALBANY      CAPIT  2017              359
## #  with 35,653 more rows, and 5 more variables: free_lunch_proportion <dbl>,
## #   reduced_lunch_proportion <dbl>, lep_proportion <dbl>,
## #   mean_reading_score <dbl>, mean_math_score <dbl>

counties

## # A tibble: 496 x 5
##    county_name  year poverty_proportion median_household_inc bachelors_proport
##    <chr>       <dbl>              <dbl>                 <dbl>              <dbl>
##  1 ALBANY       2009              0.118                 55350             0.190 
##  2 ALBANY       2010              0.119                 56090             0.197 
##  3 ALBANY       2011              0.121                 57715             0.199 
##  4 ALBANY       2012              0.124                 59359             0.198 
##  5 ALBANY       2013              0.123                 59394             0.205 
##  6 ALBANY       2014              0.129                 59940             0.201 
##  7 ALBANY       2015              0.128                 59887             0.201 
##  8 ALBANY       2016              0.123                 60904             0.206 
##  9 ALLEGANY     2009              0.152                 40917             0.0947
## 10 ALLEGANY     2010              0.149                 41305             0.0902
## #  with 486 more rows

First, a look at the schools dataset:

# what counties are there, and with what frequencies?
# all seem reasonable except the first, "-99"
schools %>% 
  group_by(county_name) %>% 
  summarize(count = n())

## `summarise()` ungrouping output (override with `.groups` argument)

## # A tibble: 63 x 2
##    county_name count
##    <chr>       <int>
##  1 ALBANY        596
##  2 ALLEGANY      146
##  3 BRONX        2941
##  4 BROOME        420
##  5 CATTARAUGUS   236
##  6 CAYUGA        151
##  7 CHAUTAUQUA    364
##  8 CHEMUNG       183
##  9 CHENANGO      156
## 10 CLINTON       203
## #  with 53 more rows

# -99 is used to represent missing values in these datasets
# -99 has already been converted to NA (from the initial read)
# there are a few thousand rows with NA values:
schools %>% 
  filter(!complete.cases(.))

## # A tibble: 3,727 x 12
##    school_id school_name district_name county_name region  year total_enrollment
##    <chr>     <chr>       <chr>         <chr>       <chr>  <dbl>            <dbl>
##  1 01010086 NEW COVENA <NA>          ALBANY      CAPIT  2008              597
##  2 01010086 NEW COVENA <NA>          ALBANY      CAPIT  2009              634
##  3 01010086 NEW COVENA <NA>          ALBANY      CAPIT  2010              653
##  4 01010086 BRIGHTER C <NA>          ALBANY      CAPIT  2008              178
##  5 01010086 BRIGHTER C <NA>          ALBANY      CAPIT  2009              217
##  6 01010086 BRIGHTER C <NA>          ALBANY      CAPIT  2010              234
##  7 01010086 BRIGHTER C <NA>          ALBANY      CAPIT  2011              255
##  8 01010086 BRIGHTER C <NA>          ALBANY      CAPIT  2012              274
##  9 01010086 BRIGHTER C <NA>          ALBANY      CAPIT  2013              273
## 10 01010086 BRIGHTER C <NA>          ALBANY      CAPIT  2014              273
## #  with 3,717 more rows, and 5 more variables: free_lunch_proportion <dbl>,
## #   reduced_lunch_proportion <dbl>, lep_proportion <dbl>,
## #   mean_reading_score <dbl>, mean_math_score <dbl>

# which rows contain any NA values?
Filter(function(x) any(is.na(x)), schools)

## # A tibble: 35,663 x 9
##    district_name county_name region total_enrollment free_lunch_prop
##    <chr>         <chr>       <chr>             <dbl>            <dbl>
##  1 ALBANY CITY  ALBANY      CAPIT              316            0.33 
##  2 ALBANY CITY  ALBANY      CAPIT              312            0.32 
##  3 ALBANY CITY  ALBANY      CAPIT              300            0.26 
##  4 ALBANY CITY  ALBANY      CAPIT              326            0.22 
##  5 ALBANY CITY  ALBANY      CAPIT              294            0.31 
##  6 ALBANY CITY  ALBANY      CAPIT              321            0.25 
##  7 ALBANY CITY  ALBANY      CAPIT              335            0.35 
##  8 ALBANY CITY  ALBANY      CAPIT              347            0.22 
##  9 ALBANY CITY  ALBANY      CAPIT              366            0.290
## 10 ALBANY CITY  ALBANY      CAPIT              359            0.26 
## #  with 35,653 more rows, and 4 more variables:
## #   reduced_lunch_proportion <dbl>, lep_proportion <dbl>,
## #   mean_reading_score <dbl>, mean_math_score <dbl>
…
# distributions of variables:

# counties
schools %>% 
  group_by(county_name) %>% 
  summarize(count = n())

## `summarise()` ungrouping output (override with `.groups` argument)

## # A tibble: 63 x 2
##    county_name count
##    <chr>       <int>
##  1 ALBANY        596
##  2 ALLEGANY      146
##  3 BRONX        2941
##  4 BROOME        420
##  5 CATTARAUGUS   236
##  6 CAYUGA        151
##  7 CHAUTAUQUA    364
##  8 CHEMUNG       183
##  9 CHENANGO      156
## 10 CLINTON       203
## #  with 53 more rows
…
Second, the counties dataset:

# distribution of variables:

# counties
counties %>% 
  group_by(county_name) %>% 
  summarize(count = n())

## `summarise()` ungrouping output (override with `.groups` argument)

## # A tibble: 62 x 2
##    county_name count
##    <chr>       <int>
##  1 ALBANY          8
##  2 ALLEGANY        8
##  3 BRONX           8
##  4 BROOME          8
##  5 CATTARAUGUS     8
##  6 CAYUGA          8
##  7 CHAUTAUQUA      8
##  8 CHEMUNG         8
##  9 CHENANGO        8
## 10 CLINTON         8
## #  with 52 more rows
…
Deal with missing values, which are currently coded as -99.

Create a categorical variable that groups counties into high, medium, and low poverty groups. Decide how you want to split up the groups and briefly explain your decision.

The tests that the NYS Department of Education administers changes from time to time, so scale scores are not directly comparable year-to-year. Create a new variable that is the standardized z-score for math and English Language Arts (ELA) for each year (hint: group by year and use the scale() function)

Missing values

Which rows contain missing values (-99)?

schools_raw %>% 
  select(-school_cd) %>% 
  filter_all(any_vars(str_detect(., "-99")))

## # A tibble: 2,226 x 11
##    school_name district_name county_name region  year total_enroll
##    <chr>       <chr>         <chr>       <chr>  <dbl>        <dbl>
##  1 HENRY JOHN <NA>          ALBANY      CAPIT  2008          112
##  2 HENRY JOHN <NA>          ALBANY      CAPIT  2009          201
##  3 ALBANY COM <NA>          ALBANY      CAPIT  2008          167
##  4 BLUE CREEK -99           -99         -99     2008          -99
##  5 BOGHT HILL -99           -99         -99     2008          -99
##  6 FORTS FERR -99           -99         -99     2008          -99
##  7 LATHAM RID -99           -99         -99     2008          -99
##  8 LOUDONVILL -99           -99         -99     2008          -99
##  9 SOUTHGATE  -99           -99         -99     2008          -99
## 10 MAPLEWOOD  -99           -99         -99     2008          -99
## #  with 2,216 more rows, and 5 more variables: per_free_lunch <dbl>,
## #   per_reduced_lunch <dbl>, per_lep <dbl>, mean_ela_score <dbl>,
## #   mean_math_score <dbl>
…
Finally, district_name. Does this column have any significance for our project?

schools %>% 
  filter(is.na(district_name)) %>% 
  group_by(school_name) %>% 
  summarize(count = n())

## `summarise()` ungrouping output (override with `.groups` argument)

## # A tibble: 263 x 2
##    school_name                                    count
##    <chr>                                          <int>
##  1 ACADEMIC LEADERSHIP CHARTER SCHOOL                 6
##  2 ACADEMY CHARTER SCHOOL                             7
##  3 ACADEMY OF THE CITY CHARTER SCHOOL                 4
##  4 ACHIEVEMENT ACADEMY CHARTER SCHOOL                 6
##  5 ACHIEVEMENT FIRST APOLLO CHARTER SCHOOL            5
##  6 ACHIEVEMENT FIRST ASPIRE CHARTER SCHOOL            2
##  7 ACHIEVEMENT FIRST BROWNSVILLE CHARTER SCHOOL       7
##  8 ACHIEVEMENT FIRST BUSHWICK CHARTER SCHOOL          9
##  9 ACHIEVEMENT FIRST CROWN HEIGHTS CHARTER SCHOOL    10
## 10 ACHIEVEMENT FIRST EAST NEW YORK CHARTER SCHOOL    10
## #  with 253 more rows
…
Since standardized tests can and do change each year they are administered, we will scale the scores of each year to correct for any bias (i.e.any exceptionally difficult or easy tests).

# passing no arguments is equivalent to standard z-distribution scaling
standardized_test_scores <- schools %>% 
  group_by(year) %>% 
  transmute(mean_math_score = mean_math_score,       # keep for reference against standardized score
            mean_reading_score = mean_reading_score, # keep for reference against standardized score
            standardized_math_score = scale(mean_math_score),
            standardized_reading_score = scale(mean_reading_score))

schools <- left_join(schools, standardized_test_scores, by = c("year", "mean_reading_score", "mean_math_score"))

schools

## # A tibble: 40,817 x 14
##    school_id school_name district_name county_name region  year total_enrollment
##    <chr>     <chr>       <chr>         <chr>       <chr>  <dbl>            <dbl>
##  1 01010001 MONTESSORI ALBANY CITY  ALBANY      CAPIT  2008              316
##  2 01010001 MONTESSORI ALBANY CITY  ALBANY      CAPIT  2009              312
##  3 01010001 MONTESSORI ALBANY CITY  ALBANY      CAPIT  2010              300
##  4 01010001 MONTESSORI ALBANY CITY  ALBANY      CAPIT  2011              326
##  5 01010001 MONTESSORI ALBANY CITY  ALBANY      CAPIT  2012              294
##  6 01010001 MONTESSORI ALBANY CITY  ALBANY      CAPIT  2013              321
##  7 01010001 MONTESSORI ALBANY CITY  ALBANY      CAPIT  2014              335
##  8 01010001 MONTESSORI ALBANY CITY  ALBANY      CAPIT  2015              347
##  9 01010001 MONTESSORI ALBANY CITY  ALBANY      CAPIT  2016              366
## 10 01010001 MONTESSORI ALBANY CITY  ALBANY      CAPIT  2017              359
## #  with 40,807 more rows, and 7 more variables: free_lunch_proportion <dbl>,
## #   reduced_lunch_proportion <dbl>, lep_proportion <dbl>,
## #   mean_reading_score <dbl>, mean_math_score <dbl>,
## #   standardized_math_score[,1] <dbl>, standardized_reading_score[,1] <dbl>

Task 4: Merge datasets

Create a county-level dataset that merges variables from the schools dataset and the ACS dataset. Remember that you have learned multiple approaches on how to do this, and that you will have to decide how to summarize data when moving from the school to the county level.

county_totals <- inner_join(schools, counties, by = c("county_name", "year"))

county_totals

## # A tibble: 33,208 x 18
##    school_id school_name district_name county_name region  year total_enrollment
##    <chr>     <chr>       <chr>         <chr>       <chr>  <dbl>            <dbl>
##  1 01010001 MONTESSORI ALBANY CITY  ALBANY      CAPIT  2009              312
##  2 01010001 MONTESSORI ALBANY CITY  ALBANY      CAPIT  2010              300
##  3 01010001 MONTESSORI ALBANY CITY  ALBANY      CAPIT  2011              326
##  4 01010001 MONTESSORI ALBANY CITY  ALBANY      CAPIT  2012              294
##  5 01010001 MONTESSORI ALBANY CITY  ALBANY      CAPIT  2013              321
##  6 01010001 MONTESSORI ALBANY CITY  ALBANY      CAPIT  2014              335
##  7 01010001 MONTESSORI ALBANY CITY  ALBANY      CAPIT  2015              347
##  8 01010001 MONTESSORI ALBANY CITY  ALBANY      CAPIT  2016              366
##  9 01010001 PINE HILLS ALBANY CITY  ALBANY      CAPIT  2009              327
## 10 01010001 PINE HILLS ALBANY CITY  ALBANY      CAPIT  2010              366
## #  with 33,198 more rows, and 11 more variables: free_lunch_proportion <dbl>,
## #   reduced_lunch_proportion <dbl>, lep_proportion <dbl>,
## #   mean_reading_score <dbl>, mean_math_score <dbl>,
## #   standardized_math_score[,1] <dbl>, standardized_reading_score[,1] <dbl>,
## #   poverty_proportion <dbl>, median_household_income <dbl>,
## #   bachelors_proportion <dbl>, poverty_group <fct>
…
# check again for duplicates
county_totals %>% 
  group_by(county_name, year) %>% 
  summarize(count = n()) %>% 
  filter(count > 1)

## `summarise()` regrouping output by 'county_name' (override with `.groups` argument)

## # A tibble: 0 x 3
## # Groups:   county_name [0]
## #  with 3 variables: county_name <chr>, year <dbl>, count <int>

county_totals

## # A tibble: 496 x 13
## # Groups:   year [8]
##    county_name  year county_enrollme county_free_lun county_reduced_
##    <chr>       <dbl>            <dbl>            <dbl>            <dbl>
##  1 ALBANY       2009            28594            0.279           0.0715
##  2 ALBANY       2010            35648            0.254           0.0642
##  3 ALBANY       2011            39853            0.274           0.0585
##  4 ALBANY       2012            33333            0.350           0.0572
##  5 ALBANY       2013            30869            0.372           0.0667
##  6 ALBANY       2014            28033            0.363           0.0482
##  7 ALBANY       2015            28992            0.377           0.0336
##  8 ALBANY       2016            29028            0.364           0.0297
##  9 ALLEGANY     2009             6792            0.350           0.152 
## 10 ALLEGANY     2010             6747            0.372           0.131 
## #  with 486 more rows, and 8 more variables: county_lep_proportion <dbl>,
## #   mean_reading_score <dbl>, mean_math_score <dbl>,
## #   bachelors_proportion <dbl>, poverty_proportion <dbl>, poverty_group <fct>,
## #   standardized_math_score[,1] <dbl>, standardized_reading_score[,1] <dbl>
…
