FinalRExercise_WuYijun
…
For each county: total enrollment, percent of students qualifying for free or reduced price lunch, and percent of population in poverty.

For the counties with the top 5 and bottom 5 poverty rate: percent of population in poverty, percent of students qualifying for free or reduced price lunch, mean reading score, and mean math score.

#1
county_data %>%
  group_by(county_name) %>%
  summarise(total_enroll = mean(total_enroll), 
            per_free_reduced_lunch = mean(avg_per_free_lunch+avg_per_reduced_luch), 
            per_poverty = mean(avg_per_poverty))

## `summarise()` ungrouping output (override with `.groups` argument)

## # A tibble: 62 x 4
##    county_name total_enroll per_free_reduced_lunch per_poverty
##    <chr>              <dbl>                  <dbl>       <dbl>
##  1 ALBANY            25948                   0.428       0.123
##  2 ALLEGANY           5622.                  0.520       0.151
##  3 BRONX            164189.                  0.861       0.287
##  4 BROOME            19327.                  0.469       0.159
##  5 CATTARAUGUS        9322.                  0.517       0.165
##  6 CAYUGA             5775.                  0.419       0.115
##  7 CHAUTAUQUA        13320.                  0.549       0.175
##  8 CHEMUNG            8778.                  0.489       0.149
##  9 CHENANGO           5352.                  0.551       0.145
## 10 CLINTON            7430.                  0.441       0.132
## #  with 52 more rows
…
