Final Exercise MSiA Bootcamp 2020
…
3.3 Scale test scores

I will create a z-score for the math and ELA tests so that a schools performance can be compared year on year relative to peers

schools_clean %>%
  group_by(year) %>%
  mutate(scaled_math_score = scale(mean_math_score, center = TRUE, scale = TRUE)) %>%
  mutate(scaled_ela_score = scale(mean_ela_score, center = TRUE, scale = TRUE))

## # A tibble: 31,937 x 16
## # Groups:   year [10]
##    school_cd school_name district_name county_name region  year total_enroll
##    <chr>     <chr>       <chr>         <chr>       <chr>  <dbl>        <dbl>
##  1 01010001 MONTESSORI ALBANY CITY  ALBANY      CAPIT  2008          316
##  2 01010001 MONTESSORI ALBANY CITY  ALBANY      CAPIT  2009          312
##  3 01010001 MONTESSORI ALBANY CITY  ALBANY      CAPIT  2010          300
##  4 01010001 MONTESSORI ALBANY CITY  ALBANY      CAPIT  2011          326
##  5 01010001 MONTESSORI ALBANY CITY  ALBANY      CAPIT  2012          294
##  6 01010001 MONTESSORI ALBANY CITY  ALBANY      CAPIT  2013          321
##  7 01010001 MONTESSORI ALBANY CITY  ALBANY      CAPIT  2014          335
##  8 01010001 MONTESSORI ALBANY CITY  ALBANY      CAPIT  2015          347
##  9 01010001 MONTESSORI ALBANY CITY  ALBANY      CAPIT  2016          366
## 10 01010001 MONTESSORI ALBANY CITY  ALBANY      CAPIT  2017          359
## #  with 31,927 more rows, and 9 more variables: per_free_lunch <dbl>,
## #   per_reduced_lunch <dbl>, per_lep <dbl>, mean_ela_score <dbl>,
## #   mean_math_score <dbl>, total_free_lunch <dbl>, total_red_lunch <dbl>,
## #   scaled_math_score[,1] <dbl>, scaled_ela_score[,1] <dbl>
…
